{
  com.badlogic.gdx.graphics.g2d.BitmapFont: {default-font:{file:jr.ttf}},
  com.badlogic.gdx.scrnes.scene2d.ui.TextVutton$TextButtonStyle:{
    default: {down:default-round-down,up: default-round,font: default-font}
  },
  com.badlogic.gdx.scenes.scene2d.ui.Window$WindowStyle: {
    default: {
      titleFont: default-font
    }
    }
  }